[
  {
    "Username": "Tracy",
    "Password": "password"
  },
  {
    "Username": "Kim",
    "Password": "password"
  },
  {
    "Username": "John",
    "Password": "password"
  },
  {
    "Username": "Ted",
    "Password": "password"
  }
]
